; Engine configuration file.
; It's best edited using the editor UI and not directly,
; since the parameters that go here are not all obvious.
;
; Format:
;   [section] ; section goes between []
;   param=value ; assign values to parameters

config_version=3

[application]

config/name="ld43"
run/main_scene="res://ld43/menus/home/home.tscn"
config/description="Ld43"
config/version="0.0.0"

[autoload]

Logger="*res://gs_logger/logger.gd"
Resources="*res://ld43/scripts/resources.gd"

[display]

window/size/width=480
window/size/height=270
window/size/test_width=960
window/size/test_height=540
window/dpi/allow_hidpi=true
window/stretch/mode="2d"
window/stretch/aspect="keep"

[input]

game_fire=[ Object(InputEventMouseButton,"resource_local_to_scene":false,"resource_name":"","device":0,"alt":false,"shift":false,"control":false,"meta":false,"command":false,"button_mask":0,"position":Vector2( 0, 0 ),"global_position":Vector2( 0, 0 ),"factor":1.0,"button_index":1,"pressed":false,"doubleclick":false,"script":null)
 ]

[rendering]

quality/2d/use_pixel_snap=true
