[gd_scene load_steps=3 format=2]

[ext_resource path="res://ld43/audio/hey.ogg" type="AudioStream" id=1]
[ext_resource path="res://ld43/audio/hey.gd" type="Script" id=2]

[node name="Hey" type="AudioStreamPlayer2D"]

stream = ExtResource( 1 )
volume_db = 0.0
pitch_scale = 1.0
autoplay = false
max_distance = 2000.0
attenuation = 1.0
bus = "Master"
area_mask = 1
script = ExtResource( 2 )


