[gd_scene load_steps=7 format=2]

[ext_resource path="res://ld43/scenes/santa/santa.gd" type="Script" id=1]
[ext_resource path="res://ld43_assets/santa.png" type="Texture" id=2]

[sub_resource type="CircleShape2D" id=1]

custom_solver_bias = 0.0
radius = 10.0

[sub_resource type="Animation" id=2]

resource_name = "idle1"
length = 0.5
loop = false
step = 0.05
tracks/0/type = "value"
tracks/0/path = NodePath("Sprite:position")
tracks/0/interp = 1
tracks/0/loop_wrap = true
tracks/0/imported = false
tracks/0/enabled = true
tracks/0/keys = {
"times": PoolRealArray( 0.1, 0.3, 0.5 ),
"transitions": PoolRealArray( 1, 1, 1 ),
"update": 0,
"values": [ Vector2( 0, 0 ), Vector2( 0, -8 ), Vector2( 0, 0 ) ]
}
tracks/1/type = "value"
tracks/1/path = NodePath("Sprite:rotation_degrees")
tracks/1/interp = 1
tracks/1/loop_wrap = true
tracks/1/imported = false
tracks/1/enabled = true
tracks/1/keys = {
"times": PoolRealArray( 0, 0.1, 0.4, 0.5 ),
"transitions": PoolRealArray( 1, 1, 1, 1 ),
"update": 0,
"values": [ 0.0, 5.0, -5.0, 0.0 ]
}

[sub_resource type="Animation" id=3]

resource_name = "idle2"
length = 0.5
loop = false
step = 0.05
tracks/0/type = "value"
tracks/0/path = NodePath("Sprite:position")
tracks/0/interp = 1
tracks/0/loop_wrap = true
tracks/0/imported = false
tracks/0/enabled = true
tracks/0/keys = {
"times": PoolRealArray( 0.1, 0.4, 0.5 ),
"transitions": PoolRealArray( 1, 1, 1 ),
"update": 0,
"values": [ Vector2( 0, 0 ), Vector2( 0, -8 ), Vector2( 0, 0 ) ]
}
tracks/1/type = "value"
tracks/1/path = NodePath("Sprite:rotation_degrees")
tracks/1/interp = 1
tracks/1/loop_wrap = true
tracks/1/imported = false
tracks/1/enabled = true
tracks/1/keys = {
"times": PoolRealArray( 0, 0.1, 0.3, 0.5 ),
"transitions": PoolRealArray( 1, 1, 1, 1 ),
"update": 0,
"values": [ 0.0, -10.0, 20.0, 0.0 ]
}

[sub_resource type="Animation" id=4]

resource_name = "jump1"
length = 0.5
loop = false
step = 0.05
tracks/0/type = "value"
tracks/0/path = NodePath("Sprite:position")
tracks/0/interp = 1
tracks/0/loop_wrap = true
tracks/0/imported = false
tracks/0/enabled = true
tracks/0/keys = {
"times": PoolRealArray( 0.1, 0.3, 0.5 ),
"transitions": PoolRealArray( 1, 1, 1 ),
"update": 0,
"values": [ Vector2( 0, 0 ), Vector2( 0, -8 ), Vector2( 0, 0 ) ]
}
tracks/1/type = "value"
tracks/1/path = NodePath("Sprite:rotation_degrees")
tracks/1/interp = 1
tracks/1/loop_wrap = true
tracks/1/imported = false
tracks/1/enabled = true
tracks/1/keys = {
"times": PoolRealArray( 0, 0.1, 0.5 ),
"transitions": PoolRealArray( 1, 1, 1 ),
"update": 0,
"values": [ 0.0, -25.0, 0.0 ]
}

[node name="Santa" type="Area2D"]

z_index = 5
input_pickable = true
gravity_vec = Vector2( 0, 1 )
gravity = 98.0
linear_damp = 0.1
angular_damp = 1.0
audio_bus_override = false
audio_bus_name = "Master"
script = ExtResource( 1 )
_sections_unfolded = [ "Transform", "Z Index" ]

[node name="Sprite" type="Sprite" parent="." index="0"]

texture = ExtResource( 2 )
region_enabled = true
region_rect = Rect2( 0, 0, 16, 16 )
_sections_unfolded = [ "Region", "Transform" ]

[node name="Sprite" type="Sprite" parent="Sprite" index="0"]

position = Vector2( -12, 5 )
texture = ExtResource( 2 )
region_enabled = true
region_rect = Rect2( 128, 0, 16, 16 )
_sections_unfolded = [ "Region" ]

[node name="CollisionShape2D" type="CollisionShape2D" parent="." index="1"]

shape = SubResource( 1 )
_sections_unfolded = [ "Transform" ]

[node name="AnimationPlayer" type="AnimationPlayer" parent="." index="2"]

root_node = NodePath("..")
autoplay = ""
playback_process_mode = 1
playback_default_blend_time = 0.0
playback_speed = 0.8
anims/idle1 = SubResource( 2 )
anims/idle2 = SubResource( 3 )
anims/jump = SubResource( 4 )
blend_times = [  ]
_sections_unfolded = [ "Playback Options" ]

[node name="IdleTimer" type="Timer" parent="." index="3"]

process_mode = 1
wait_time = 2.0
one_shot = false
autostart = false

[node name="Tween" type="Tween" parent="." index="4"]

repeat = false
playback_process_mode = 1
playback_speed = 1.0
playback/active = false
playback/repeat = false
playback/speed = 1.0

[connection signal="timeout" from="IdleTimer" to="." method="_on_IdleTimer_timeout"]


