[gd_scene load_steps=4 format=2]

[ext_resource path="res://ld43/scenes/buildings/building_spawner.gd" type="Script" id=1]
[ext_resource path="res://ld43/scenes/buildings/building.tscn" type="PackedScene" id=2]
[ext_resource path="res://ld43/tiles/building_tiles.tres" type="TileSet" id=3]

[node name="BuildingSpawner" type="Node2D"]

script = ExtResource( 1 )
building = ExtResource( 2 )
pre_cache = 5
trigger_offset = Vector2( 360, 0 )

[node name="TileMap" type="TileMap" parent="." index="0"]

mode = 0
tile_set = ExtResource( 3 )
cell_size = Vector2( 40, 40 )
cell_quadrant_size = 16
cell_custom_transform = Transform2D( 1, 0, 0, 1, 0, 0 )
cell_half_offset = 2
cell_tile_origin = 0
cell_y_sort = false
cell_clip_uv = false
collision_use_kinematic = false
collision_friction = 1.0
collision_bounce = 0.0
collision_layer = 1
collision_mask = 1
occluder_light_mask = 1
format = 1
tile_data = PoolIntArray(  )
_sections_unfolded = [ "Cell" ]


