[gd_scene load_steps=2 format=2]

[ext_resource path="res://ld43/scenes/buildings/building.gd" type="Script" id=1]

[node name="Building" type="Node2D"]

script = ExtResource( 1 )
point_offset = Vector2( 40, 70 )


