[gd_scene load_steps=2 format=2]

[ext_resource path="res://ld43/scenes/game/random_mover.gd" type="Script" id=1]



[node name="RandomMover" type="Node2D"]

script = ExtResource( 1 )
move_range = Vector2( 10, 10 )

[node name="Tween" type="Tween" parent="." index="0"]

repeat = false
playback_process_mode = 1
playback_speed = 1.0
playback/active = false
playback/repeat = false
playback/speed = 1.0
_sections_unfolded = [ "playback" ]

[connection signal="tween_completed" from="Tween" to="." method="_on_Tween_tween_completed"]


